Vega Datasets • altair
…
Accessing

Our vega_data object has a method to list all its datasets:

vega_data$list_datasets() %>% head()
#> [1] "7zip"          "airports"      "annual-precip" "anscombe"     
#> [5] "barley"        "birdstrikes"

Each dataset can be accessed using a method whose name is an element returned from vega_data$list_datasets().

library("tibble")

vega_data$anscombe() %>% as_tibble()
#> # A tibble: 44 x 3
#>    Series     X     Y
#>    <chr>  <dbl> <dbl>
#>  1 I         10  8.04
#>  2 I          8  6.95
#>  3 I         13  7.58
#>  4 I          9  8.81
#>  5 I         11  8.33
#>  6 I         14  9.96
#>  7 I          6  7.24
#>  8 I          4  4.26
#>  9 I         12 10.8 
#> 10 I          7  4.81
#> # … with 34 more rows

It is useful to keep in mind that reticulate changes the names of the datasets, and presumably, Python objects in general. Where you see a - in a name of a Python object, a _ will be used in the name of the reticulated object in R. For example, in Python: data.sf-temps(); in R:

vega_data$sf_temps() %>% as_tibble()
#> # A tibble: 8,759 x 2
#>     temp date               
#>    <dbl> <dttm>             
#>  1  47.8 2010-01-01 00:00:00
#>  2  47.4 2010-01-01 01:00:00
#>  3  46.9 2010-01-01 02:00:00
#>  4  46.5 2010-01-01 03:00:00
#>  5  46   2010-01-01 04:00:00
#>  6  45.8 2010-01-01 05:00:00
#>  7  45.9 2010-01-01 06:00:00
#>  8  45.9 2010-01-01 07:00:00
#>  9  46.4 2010-01-01 08:00:00
#> 10  48   2010-01-01 09:00:00
#> # … with 8,749 more rows
…
